<?xml version="1.0" encoding="utf-8"?>
<COLLADA xmlns="http://www.collada.org/2005/11/COLLADASchema" version="1.4.1">
  <asset>
    <contributor>
      <author>Blender User</author>
      <authoring_tool>Blender 2.65.0 r53177</authoring_tool>
    </contributor>
    <created>2013-02-27T02:34:44</created>
    <modified>2013-02-27T02:34:44</modified>
    <unit name="meter" meter="1"/>
    <up_axis>Z_UP</up_axis>
  </asset>
  <library_images/>
  <library_effects>
    <effect id="wheels-effect">
      <profile_COMMON>
        <technique sid="common">
          <phong>
            <emission>
              <color sid="emission">0 0 0 1</color>
            </emission>
            <ambient>
              <color sid="ambient">0 0 0 1</color>
            </ambient>
            <diffuse>
              <color sid="diffuse">0.3681414 0.3681414 0.3681414 1</color>
            </diffuse>
            <specular>
              <color sid="specular">0.5 0.5 0.5 1</color>
            </specular>
            <shininess>
              <float sid="shininess">50</float>
            </shininess>
            <index_of_refraction>
              <float sid="index_of_refraction">1</float>
            </index_of_refraction>
          </phong>
        </technique>
      </profile_COMMON>
    </effect>
    <effect id="cabin-effect">
      <profile_COMMON>
        <technique sid="common">
          <phong>
            <emission>
              <color sid="emission">0 0 0 1</color>
            </emission>
            <ambient>
              <color sid="ambient">0 0 0 1</color>
            </ambient>
            <diffuse>
              <color sid="diffuse">0.5650698 0.4846753 0.4152025 1</color>
            </diffuse>
            <specular>
              <color sid="specular">0.5 0.5 0.5 1</color>
            </specular>
            <shininess>
              <float sid="shininess">50</float>
            </shininess>
            <index_of_refraction>
              <float sid="index_of_refraction">1</float>
            </index_of_refraction>
          </phong>
        </technique>
      </profile_COMMON>
    </effect>
    <effect id="bumper-effect">
      <profile_COMMON>
        <technique sid="common">
          <phong>
            <emission>
              <color sid="emission">0 0 0 1</color>
            </emission>
            <ambient>
              <color sid="ambient">0 0 0 1</color>
            </ambient>
            <diffuse>
              <color sid="diffuse">0.2003875 0.2003875 0.2003875 1</color>
            </diffuse>
            <specular>
              <color sid="specular">0.5 0.5 0.5 1</color>
            </specular>
            <shininess>
              <float sid="shininess">50</float>
            </shininess>
            <index_of_refraction>
              <float sid="index_of_refraction">1</float>
            </index_of_refraction>
          </phong>
        </technique>
      </profile_COMMON>
    </effect>
    <effect id="frame-effect">
      <profile_COMMON>
        <technique sid="common">
          <phong>
            <emission>
              <color sid="emission">0 0 0 1</color>
            </emission>
            <ambient>
              <color sid="ambient">0 0 0 1</color>
            </ambient>
            <diffuse>
              <color sid="diffuse">0.2222684 0.2222684 0.2222684 1</color>
            </diffuse>
            <specular>
              <color sid="specular">0.1525933 0.1525933 0.1525933 1</color>
            </specular>
            <shininess>
              <float sid="shininess">50</float>
            </shininess>
            <index_of_refraction>
              <float sid="index_of_refraction">1</float>
            </index_of_refraction>
          </phong>
        </technique>
      </profile_COMMON>
    </effect>
    <effect id="dump_body-effect">
      <profile_COMMON>
        <technique sid="common">
          <phong>
            <emission>
              <color sid="emission">0 0 0 1</color>
            </emission>
            <ambient>
              <color sid="ambient">0 0 0 1</color>
            </ambient>
            <diffuse>
              <color sid="diffuse">0.64 0.64 0.64 1</color>
            </diffuse>
            <specular>
              <color sid="specular">0.5 0.5 0.5 1</color>
            </specular>
            <shininess>
              <float sid="shininess">50</float>
            </shininess>
            <index_of_refraction>
              <float sid="index_of_refraction">1</float>
            </index_of_refraction>
          </phong>
        </technique>
      </profile_COMMON>
    </effect>
  </library_effects>
  <library_materials>
    <material id="wheels-material" name="wheels">
      <instance_effect url="#wheels-effect"/>
    </material>
    <material id="cabin-material" name="cabin">
      <instance_effect url="#cabin-effect"/>
    </material>
    <material id="bumper-material" name="bumper">
      <instance_effect url="#bumper-effect"/>
    </material>
    <material id="frame-material" name="frame">
      <instance_effect url="#frame-effect"/>
    </material>
    <material id="dump_body-material" name="dump_body">
      <instance_effect url="#dump_body-effect"/>
    </material>
  </library_materials>
  <library_geometries>
    <geometry id="fwheel-mesh" name="fwheel">
      <mesh>
        <source id="fwheel-mesh-positions">
          <float_array id="fwheel-mesh-positions-array" count="78">0.3535534 0.2 0.3535534 0.4829629 0.2 0.1294094 0.4829629 0.1999999 -0.1294095 0.3535534 0.1999999 -0.3535534 0.1294095 0.1999999 -0.4829629 -0.1294094 0.1999999 -0.482963 -0.3535533 0.1999999 -0.3535535 -0.4829629 0.1999999 -0.1294097 -0.482963 0.2 0.1294093 -0.3535535 0.2 0.3535532 -0.1294098 0.2 0.4829628 0.1294091 0.2 0.482963 0.3535531 -0.1999999 0.3535537 0.4829628 -0.1999999 0.12941 0.482963 -0.2 -0.129409 0.3535538 -0.2 -0.3535529 0.1294101 -0.2 -0.4829627 -0.1294088 -0.2 -0.482963 -0.3535529 -0.2 -0.3535538 -0.4829627 -0.2 -0.1294102 -0.4829631 -0.1999999 0.1294087 -0.353554 -0.1999999 0.3535528 -0.1294104 -0.1999999 0.4829627 0.1294085 -0.1999999 0.4829632 0 0.2 0 0 -0.2 0</float_array>
          <technique_common>
            <accessor source="#fwheel-mesh-positions-array" count="26" stride="3">
              <param name="X" type="float"/>
              <param name="Y" type="float"/>
              <param name="Z" type="float"/>
            </accessor>
          </technique_common>
        </source>
        <source id="fwheel-mesh-normals">
          <float_array id="fwheel-mesh-normals-array" count="144">0 1 0 0 -1 0 0 1 0 0 -1 0 0 1 0 0 -1 0 0 1 0 0 -1 0 0 1 0 0 -1 0 0 1 0 0 -1 0 0 1 0 0 -1 0 0 1 0 0 -1 0 0 1 0 0 -1 0 0 1 0 0 -1 0 0 1 0 0 -1 0 0 1 0 0 -1 0 0.5353862 0.6532182 0.5353862 0.5353862 -0.6532182 0.5353862 0.7313455 -0.6532182 0.1959593 0.7313455 0.6532182 0.1959593 0.7313455 -0.6532182 -0.1959593 0.7313455 0.6532182 -0.1959593 0.5353862 -0.6532182 -0.5353862 0.5353862 0.6532182 -0.5353862 0.1959593 -0.6532182 -0.7313455 0.1959593 0.6532182 -0.7313455 -0.1959593 -0.6532182 -0.7313455 -0.1959593 0.6532182 -0.7313455 -0.5353862 -0.6532182 -0.5353862 -0.5353862 0.6532182 -0.5353862 -0.7313455 -0.6532182 -0.1959593 -0.7313455 0.6532182 -0.1959593 -0.7313455 -0.6532182 0.1959593 -0.7313455 0.6532182 0.1959593 -0.5353862 -0.6532182 0.5353862 -0.5353862 0.6532182 0.5353862 -0.1959593 -0.6532182 0.7313455 -0.1959593 0.6532182 0.7313455 0.1959593 -0.6532182 0.7313455 0.1959593 0.6532182 0.7313455</float_array>
          <technique_common>
            <accessor source="#fwheel-mesh-normals-array" count="48" stride="3">
              <param name="X" type="float"/>
              <param name="Y" type="float"/>
              <param name="Z" type="float"/>
            </accessor>
          </technique_common>
        </source>
        <source id="fwheel-mesh-map-0">
          <float_array id="fwheel-mesh-map-0-array" count="240">0 0 1 0 1 1 0 0 1 0 1 1 0 0 1 0 1 1 0 0 1 0 1 1 0 0 1 0 1 1 0 0 1 0 1 1 0 0 1 0 1 1 0 0 1 0 1 1 0 0 1 0 1 1 0 0 1 0 1 1 0 0 1 0 1 1 0 0 1 0 1 1 0 0 1 0 1 1 0 0 1 0 1 1 0 0 1 0 1 1 0 0 1 0 1 1 0 0 1 0 1 1 0 0 1 0 1 1 0 0 1 0 1 1 0 0 1 0 1 1 0 0 1 0 1 1 0 0 1 0 1 1 0 0 1 0 1 1 0 0 1 0 1 1 0 0 1 0 1 1 0 1 0 0 1 0 1 1 0 1 0 0 1 0 1 1 0 1 0 0 1 0 1 1 0 1 0 0 1 0 1 1 0 1 0 0 1 0 1 1 0 1 0 0 1 0 1 1 0 1 0 0 1 0 1 1 0 1 0 0 1 0 1 1 0 1 0 0 1 0 1 1 0 1 0 0 1 0 1 1 0 1 0 0 1 0 1 1 0 1</float_array>
          <technique_common>
            <accessor source="#fwheel-mesh-map-0-array" count="120" stride="2">
              <param name="S" type="float"/>
              <param name="T" type="float"/>
            </accessor>
          </technique_common>
        </source>
        <vertices id="fwheel-mesh-vertices">
          <input semantic="POSITION" source="#fwheel-mesh-positions"/>
        </vertices>
        <polylist material="wheels-material" count="36">
          <input semantic="VERTEX" source="#fwheel-mesh-vertices" offset="0"/>
          <input semantic="NORMAL" source="#fwheel-mesh-normals" offset="1"/>
          <input semantic="TEXCOORD" source="#fwheel-mesh-map-0" offset="2" set="0"/>
          <vcount>3 3 3 3 3 3 3 3 3 3 3 3 3 3 3 3 3 3 3 3 3 3 3 3 4 4 4 4 4 4 4 4 4 4 4 4 </vcount>
          <p>24 0 0 0 0 1 1 0 2 25 1 3 13 1 4 12 1 5 24 2 6 1 2 7 2 2 8 25 3 9 14 3 10 13 3 11 24 4 12 2 4 13 3 4 14 25 5 15 15 5 16 14 5 17 24 6 18 3 6 19 4 6 20 25 7 21 16 7 22 15 7 23 24 8 24 4 8 25 5 8 26 25 9 27 17 9 28 16 9 29 24 10 30 5 10 31 6 10 32 25 11 33 18 11 34 17 11 35 24 12 36 6 12 37 7 12 38 25 13 39 19 13 40 18 13 41 24 14 42 7 14 43 8 14 44 25 15 45 20 15 46 19 15 47 24 16 48 8 16 49 9 16 50 25 17 51 21 17 52 20 17 53 24 18 54 9 18 55 10 18 56 25 19 57 22 19 58 21 19 59 24 20 60 10 20 61 11 20 62 25 21 63 23 21 64 22 21 65 11 22 66 0 22 67 24 22 68 25 23 69 12 23 70 23 23 71 0 24 72 12 25 73 13 26 74 1 27 75 1 27 76 13 26 77 14 28 78 2 29 79 2 29 80 14 28 81 15 30 82 3 31 83 3 31 84 15 30 85 16 32 86 4 33 87 4 33 88 16 32 89 17 34 90 5 35 91 5 35 92 17 34 93 18 36 94 6 37 95 6 37 96 18 36 97 19 38 98 7 39 99 7 39 100 19 38 101 20 40 102 8 41 103 8 41 104 20 40 105 21 42 106 9 43 107 9 43 108 21 42 109 22 44 110 10 45 111 10 45 112 22 44 113 23 46 114 11 47 115 12 25 116 0 24 117 11 47 118 23 46 119</p>
        </polylist>
      </mesh>
      <extra><technique profile="MAYA"><double_sided>1</double_sided></technique></extra>
    </geometry>
    <geometry id="rwheel-mesh" name="rwheel">
      <mesh>
        <source id="rwheel-mesh-positions">
          <float_array id="rwheel-mesh-positions-array" count="78">0.3535534 0.4 0.3535534 0.4829629 0.4 0.1294094 0.4829629 0.4 -0.1294095 0.3535534 0.4 -0.3535534 0.1294095 0.4 -0.4829629 -0.1294094 0.4 -0.482963 -0.3535533 0.4 -0.3535535 -0.4829629 0.4 -0.1294097 -0.482963 0.4 0.1294093 -0.3535535 0.4 0.3535532 -0.1294098 0.4 0.4829628 0.1294091 0.4 0.482963 0.3535531 -0.4 0.3535537 0.4829628 -0.4 0.12941 0.482963 -0.4 -0.129409 0.3535538 -0.4 -0.3535529 0.1294101 -0.4 -0.4829627 -0.1294088 -0.4 -0.482963 -0.3535529 -0.4 -0.3535538 -0.4829627 -0.4 -0.1294102 -0.4829631 -0.4 0.1294087 -0.353554 -0.4 0.3535528 -0.1294104 -0.4 0.4829627 0.1294085 -0.4 0.4829632 0 0.4 0 0 -0.4 0</float_array>
          <technique_common>
            <accessor source="#rwheel-mesh-positions-array" count="26" stride="3">
              <param name="X" type="float"/>
              <param name="Y" type="float"/>
              <param name="Z" type="float"/>
            </accessor>
          </technique_common>
        </source>
        <source id="rwheel-mesh-normals">
          <float_array id="rwheel-mesh-normals-array" count="144">0 1 0 0 -1 0 0 1 0 0 -1 0 0 1 0 0 -1 0 0 1 0 0 -1 0 0 1 0 0 -1 0 0 1 0 0 -1 0 0 1 0 0 -1 0 0 1 0 0 -1 0 0 1 0 0 -1 0 0 1 0 0 -1 0 0 1 0 0 -1 0 0 1 0 0 -1 0 0.5353862 0.6532182 0.5353862 0.5353862 -0.6532182 0.5353862 0.7313455 -0.6532182 0.1959593 0.7313455 0.6532182 0.1959593 0.7313455 -0.6532182 -0.1959593 0.7313455 0.6532182 -0.1959593 0.5353862 -0.6532182 -0.5353862 0.5353862 0.6532182 -0.5353862 0.1959593 -0.6532182 -0.7313455 0.1959593 0.6532182 -0.7313455 -0.1959593 -0.6532182 -0.7313455 -0.1959593 0.6532182 -0.7313455 -0.5353862 -0.6532182 -0.5353862 -0.5353862 0.6532182 -0.5353862 -0.7313455 -0.6532182 -0.1959593 -0.7313455 0.6532182 -0.1959593 -0.7313455 -0.6532182 0.1959593 -0.7313455 0.6532182 0.1959593 -0.5353862 -0.6532182 0.5353862 -0.5353862 0.6532182 0.5353862 -0.1959593 -0.6532182 0.7313455 -0.1959593 0.6532182 0.7313455 0.1959593 -0.6532182 0.7313455 0.1959593 0.6532182 0.7313455</float_array>
          <technique_common>
            <accessor source="#rwheel-mesh-normals-array" count="48" stride="3">
              <param name="X" type="float"/>
              <param name="Y" type="float"/>
              <param name="Z" type="float"/>
            </accessor>
          </technique_common>
        </source>
        <source id="rwheel-mesh-map-0">
          <float_array id="rwheel-mesh-map-0-array" count="240">0 0 1 0 1 1 0 0 1 0 1 1 0 0 1 0 1 1 0 0 1 0 1 1 0 0 1 0 1 1 0 0 1 0 1 1 0 0 1 0 1 1 0 0 1 0 1 1 0 0 1 0 1 1 0 0 1 0 1 1 0 0 1 0 1 1 0 0 1 0 1 1 0 0 1 0 1 1 0 0 1 0 1 1 0 0 1 0 1 1 0 0 1 0 1 1 0 0 1 0 1 1 0 0 1 0 1 1 0 0 1 0 1 1 0 0 1 0 1 1 0 0 1 0 1 1 0 0 1 0 1 1 0 0 1 0 1 1 0 0 1 0 1 1 0 0 1 0 1 1 0 1 0 0 1 0 1 1 0 1 0 0 1 0 1 1 0 1 0 0 1 0 1 1 0 1 0 0 1 0 1 1 0 1 0 0 1 0 1 1 0 1 0 0 1 0 1 1 0 1 0 0 1 0 1 1 0 1 0 0 1 0 1 1 0 1 0 0 1 0 1 1 0 1 0 0 1 0 1 1 0 1 0 0 1 0 1 1 0 1</float_array>
          <technique_common>
            <accessor source="#rwheel-mesh-map-0-array" count="120" stride="2">
              <param name="S" type="float"/>
              <param name="T" type="float"/>
            </accessor>
          </technique_common>
        </source>
        <vertices id="rwheel-mesh-vertices">
          <input semantic="POSITION" source="#rwheel-mesh-positions"/>
        </vertices>
        <polylist material="wheels-material" count="36">
          <input semantic="VERTEX" source="#rwheel-mesh-vertices" offset="0"/>
          <input semantic="NORMAL" source="#rwheel-mesh-normals" offset="1"/>
          <input semantic="TEXCOORD" source="#rwheel-mesh-map-0" offset="2" set="0"/>
          <vcount>3 3 3 3 3 3 3 3 3 3 3 3 3 3 3 3 3 3 3 3 3 3 3 3 4 4 4 4 4 4 4 4 4 4 4 4 </vcount>
          <p>24 0 0 0 0 1 1 0 2 25 1 3 13 1 4 12 1 5 24 2 6 1 2 7 2 2 8 25 3 9 14 3 10 13 3 11 24 4 12 2 4 13 3 4 14 25 5 15 15 5 16 14 5 17 24 6 18 3 6 19 4 6 20 25 7 21 16 7 22 15 7 23 24 8 24 4 8 25 5 8 26 25 9 27 17 9 28 16 9 29 24 10 30 5 10 31 6 10 32 25 11 33 18 11 34 17 11 35 24 12 36 6 12 37 7 12 38 25 13 39 19 13 40 18 13 41 24 14 42 7 14 43 8 14 44 25 15 45 20 15 46 19 15 47 24 16 48 8 16 49 9 16 50 25 17 51 21 17 52 20 17 53 24 18 54 9 18 55 10 18 56 25 19 57 22 19 58 21 19 59 24 20 60 10 20 61 11 20 62 25 21 63 23 21 64 22 21 65 11 22 66 0 22 67 24 22 68 25 23 69 12 23 70 23 23 71 0 24 72 12 25 73 13 26 74 1 27 75 1 27 76 13 26 77 14 28 78 2 29 79 2 29 80 14 28 81 15 30 82 3 31 83 3 31 84 15 30 85 16 32 86 4 33 87 4 33 88 16 32 89 17 34 90 5 35 91 5 35 92 17 34 93 18 36 94 6 37 95 6 37 96 18 36 97 19 38 98 7 39 99 7 39 100 19 38 101 20 40 102 8 41 103 8 41 104 20 40 105 21 42 106 9 43 107 9 43 108 21 42 109 22 44 110 10 45 111 10 45 112 22 44 113 23 46 114 11 47 115 12 25 116 0 24 117 11 47 118 23 46 119</p>
        </polylist>
      </mesh>
      <extra><technique profile="MAYA"><double_sided>1</double_sided></technique></extra>
    </geometry>
    <geometry id="body-mesh" name="body">
      <mesh>
        <source id="body-mesh-positions">
          <float_array id="body-mesh-positions-array" count="84">0.5604118 0.9999998 -1.35 0.5604118 -0.9999998 -1.35 0.2004114 -0.9999998 -1.35 0.2004114 1 -1.35 0.6004119 0.9999994 -0.8500003 0.6004117 -1 -0.8500003 0.2004112 -0.9999991 -0.8500003 0.2004114 1 -0.8500003 0.2004084 0.4249998 -1.4 0.2004082 -0.4249998 -1.4 -5.599586 -0.4249998 -1.4 -5.599585 0.4249999 -1.4 0.2004094 0.4249997 -0.8000003 0.2004067 -0.425 -0.8000003 -5.599587 -0.4249995 -0.8000003 -5.599585 0.425 -0.8000003 0.5000001 1.05 -0.85 0.5000001 -1.05 -0.85 -0.6000001 -1.05 -0.85 -0.6 1.05 -0.85 0.6000003 1.049999 0.1499999 0.5999998 -1.05 0.1499999 -0.6000005 -1.049999 0.25 -0.5999999 1.05 0.25 0.4000003 0.9499995 1.05 -0.5999999 0.9500004 1.15 -0.6000005 -0.9499992 1.15 0.3999997 -0.9500005 1.05</float_array>
          <technique_common>
            <accessor source="#body-mesh-positions-array" count="28" stride="3">
              <param name="X" type="float"/>
              <param name="Y" type="float"/>
              <param name="Z" type="float"/>
            </accessor>
          </technique_common>
        </source>
        <source id="body-mesh-normals">
          <float_array id="body-mesh-normals-array" count="66">0 0 -1 0 0 1 0.9968153 0 -0.07974523 -1.56854e-6 -1 3.0116e-7 -1 0 0 1.25483e-6 1 1.88225e-7 0 0 -1 0 0 1 1 -1.68296e-6 3.97364e-7 0 -1 0 -1 2.24394e-6 -1.58946e-6 0 1 0 0 0 -1 0.9950372 -1.41212e-7 -0.09950369 -5.6649e-7 -1 0 -1 1.84491e-7 -1.35465e-7 5.22156e-7 1 0 0.01014059 0.9937084 0.1115387 -1 3.27826e-7 0 0.01013875 -0.9937084 0.1115385 0.9761871 -2.69107e-7 0.2169305 0.09950357 0 0.9950372</float_array>
          <technique_common>
            <accessor source="#body-mesh-normals-array" count="22" stride="3">
              <param name="X" type="float"/>
              <param name="Y" type="float"/>
              <param name="Z" type="float"/>
            </accessor>
          </technique_common>
        </source>
        <source id="body-mesh-map-0">
          <float_array id="body-mesh-map-0-array" count="176">0 0 1 0 1 1 0 1 0 0 1 0 1 1 0 1 0 0 1 0 1 1 0 1 0 0 1 0 1 1 0 1 0 0 1 0 1 1 0 1 0 0 1 0 1 1 0 1 0 0 1 0 1 1 0 1 0 0 1 0 1 1 0 1 0 0 1 0 1 1 0 1 0 0 1 0 1 1 0 1 0 0 1 0 1 1 0 1 0 0 1 0 1 1 0 1 0 0 1 0 1 1 0 1 0 0 1 0 1 1 0 1 0 0 1 0 1 1 0 1 0 0 1 0 1 1 0 1 0 0 1 0 1 1 0 1 0 0 1 0 1 1 0 1 0 0 1 0 1 1 0 1 0 0 1 0 1 1 0 1 0 0 1 0 1 1 0 1 0 0 1 0 1 1 0 1</float_array>
          <technique_common>
            <accessor source="#body-mesh-map-0-array" count="88" stride="2">
              <param name="S" type="float"/>
              <param name="T" type="float"/>
            </accessor>
          </technique_common>
        </source>
        <vertices id="body-mesh-vertices">
          <input semantic="POSITION" source="#body-mesh-positions"/>
        </vertices>
        <polylist material="cabin-material" count="10">
          <input semantic="VERTEX" source="#body-mesh-vertices" offset="0"/>
          <input semantic="NORMAL" source="#body-mesh-normals" offset="1"/>
          <input semantic="TEXCOORD" source="#body-mesh-map-0" offset="2" set="0"/>
          <vcount>4 4 4 4 4 4 4 4 4 4 </vcount>
          <p>16 12 48 17 12 49 18 12 50 19 12 51 16 13 52 20 13 53 21 13 54 17 13 55 17 14 56 21 14 57 22 14 58 18 14 59 18 15 60 22 15 61 23 15 62 19 15 63 20 16 64 16 16 65 19 16 66 23 16 67 20 17 68 23 17 69 25 17 70 24 17 71 23 18 72 22 18 73 26 18 74 25 18 75 22 19 76 21 19 77 27 19 78 26 19 79 21 20 80 20 20 81 24 20 82 27 20 83 24 21 84 25 21 85 26 21 86 27 21 87</p>
        </polylist>
        <polylist material="bumper-material" count="6">
          <input semantic="VERTEX" source="#body-mesh-vertices" offset="0"/>
          <input semantic="NORMAL" source="#body-mesh-normals" offset="1"/>
          <input semantic="TEXCOORD" source="#body-mesh-map-0" offset="2" set="0"/>
          <vcount>4 4 4 4 4 4 </vcount>
          <p>0 0 0 1 0 1 2 0 2 3 0 3 4 1 4 7 1 5 6 1 6 5 1 7 0 2 8 4 2 9 5 2 10 1 2 11 1 3 12 5 3 13 6 3 14 2 3 15 2 4 16 6 4 17 7 4 18 3 4 19 4 5 20 0 5 21 3 5 22 7 5 23</p>
        </polylist>
        <polylist material="frame-material" count="6">
          <input semantic="VERTEX" source="#body-mesh-vertices" offset="0"/>
          <input semantic="NORMAL" source="#body-mesh-normals" offset="1"/>
          <input semantic="TEXCOORD" source="#body-mesh-map-0" offset="2" set="0"/>
          <vcount>4 4 4 4 4 4 </vcount>
          <p>8 6 24 9 6 25 10 6 26 11 6 27 12 7 28 15 7 29 14 7 30 13 7 31 8 8 32 12 8 33 13 8 34 9 8 35 9 9 36 13 9 37 14 9 38 10 9 39 10 10 40 14 10 41 15 10 42 11 10 43 12 11 44 8 11 45 11 11 46 15 11 47</p>
        </polylist>
      </mesh>
      <extra><technique profile="MAYA"><double_sided>1</double_sided></technique></extra>
    </geometry>
    <geometry id="dump_body-mesh" name="dump_body">
      <mesh>
        <source id="dump_body-mesh-positions">
          <float_array id="dump_body-mesh-positions-array" count="48">4.149998 1.2 0.04632669 4.149998 -1.2 0.04632669 -0.5499985 -1.2 0.04632669 -0.5499983 1.2 0.04632669 4.549999 1.199999 1.946327 4.549996 -1.2 1.946327 -0.5500002 -1.199999 1.946327 -0.5499978 1.2 1.946327 -0.5499983 1.08 0.1913266 -0.5499981 1.08 1.946327 -0.55 -1.079999 1.946327 -0.5499985 -1.08 0.1913266 4.45714 -1.08 1.946327 4.050316 -1.08 0.1913266 4.050317 1.08 0.1913266 4.457143 1.08 1.946327</float_array>
          <technique_common>
            <accessor source="#dump_body-mesh-positions-array" count="16" stride="3">
              <param name="X" type="float"/>
              <param name="Y" type="float"/>
              <param name="Z" type="float"/>
            </accessor>
          </technique_common>
        </source>
        <source id="dump_body-mesh-normals">
          <float_array id="dump_body-mesh-normals-array" count="42">0 0 -1 0.9785498 -4.86051e-7 -0.2060104 -1.58135e-7 -1 0 1.45971e-7 1 0 -1 1.11164e-6 1.95692e-7 -1 1.50575e-6 -8.48001e-7 0 0 1 -1 0 0 0 0 1 0 1 0 0 0 1 -0.9741688 6.45166e-7 0.2258212 0 0 1 0 -1 0</float_array>
          <technique_common>
            <accessor source="#dump_body-mesh-normals-array" count="14" stride="3">
              <param name="X" type="float"/>
              <param name="Y" type="float"/>
              <param name="Z" type="float"/>
            </accessor>
          </technique_common>
        </source>
        <source id="dump_body-mesh-map-0">
          <float_array id="dump_body-mesh-map-0-array" count="112">0 0 1 0 1 1 0 1 0 0 1 0 1 1 0 1 0 0 1 0 1 1 0 1 0 0 1 0 1 1 0 1 0 0 1 0 1 1 0 1 0 0 1 0 1 1 0 1 0 0 1 0 1 1 0 1 0 0 1 0 1 1 0 1 0 0 1 0 1 1 0 1 0 0 1 0 1 1 0 1 0 0 1 0 1 1 0 1 0 0 1 0 1 1 0 1 0 0 1 0 1 1 0 1 0 0 1 0 1 1 0 1</float_array>
          <technique_common>
            <accessor source="#dump_body-mesh-map-0-array" count="56" stride="2">
              <param name="S" type="float"/>
              <param name="T" type="float"/>
            </accessor>
          </technique_common>
        </source>
        <vertices id="dump_body-mesh-vertices">
          <input semantic="POSITION" source="#dump_body-mesh-positions"/>
        </vertices>
        <polylist material="dump_body-material" count="14">
          <input semantic="VERTEX" source="#dump_body-mesh-vertices" offset="0"/>
          <input semantic="NORMAL" source="#dump_body-mesh-normals" offset="1"/>
          <input semantic="TEXCOORD" source="#dump_body-mesh-map-0" offset="2" set="0"/>
          <vcount>4 4 4 4 4 4 4 4 4 4 4 4 4 4 </vcount>
          <p>0 0 0 1 0 1 2 0 2 3 0 3 0 1 4 4 1 5 5 1 6 1 1 7 1 2 8 5 2 9 6 2 10 2 2 11 4 3 12 0 3 13 3 3 14 7 3 15 7 4 16 3 4 17 8 4 18 9 4 19 6 5 20 10 5 21 11 5 22 2 5 23 6 6 24 5 6 25 12 6 26 10 6 27 2 7 28 11 7 29 8 7 30 3 7 31 8 8 32 11 8 33 13 8 34 14 8 35 11 9 36 10 9 37 12 9 38 13 9 39 4 10 40 15 10 41 12 10 42 5 10 43 12 11 44 15 11 45 14 11 46 13 11 47 9 12 48 15 12 49 4 12 50 7 12 51 15 13 52 9 13 53 8 13 54 14 13 55</p>
        </polylist>
      </mesh>
      <extra><technique profile="MAYA"><double_sided>1</double_sided></technique></extra>
    </geometry>
  </library_geometries>
  <library_animations>
    <animation id="dump_body_rotation_euler_X">
      <source id="dump_body_rotation_euler_X-input">
        <float_array id="dump_body_rotation_euler_X-input-array" count="2">0 0.96</float_array>
        <technique_common>
          <accessor source="#dump_body_rotation_euler_X-input-array" count="2" stride="1">
            <param name="TIME" type="float"/>
          </accessor>
        </technique_common>
      </source>
      <source id="dump_body_rotation_euler_X-output">
        <float_array id="dump_body_rotation_euler_X-output-array" count="2">0 -1.96115e-6</float_array>
        <technique_common>
          <accessor source="#dump_body_rotation_euler_X-output-array" count="2" stride="1">
            <param name="ANGLE" type="float"/>
          </accessor>
        </technique_common>
      </source>
      <source id="dump_body_rotation_euler_X-interpolation">
        <Name_array id="dump_body_rotation_euler_X-interpolation-array" count="2">BEZIER BEZIER</Name_array>
        <technique_common>
          <accessor source="#dump_body_rotation_euler_X-interpolation-array" count="2" stride="1">
            <param name="INTERPOLATION" type="name"/>
          </accessor>
        </technique_common>
      </source>
      <source id="dump_body_rotation_euler_X-intangent">
        <float_array id="dump_body_rotation_euler_X-intangent-array" count="4">-0.374795 0 0.585205 -1.96115e-6</float_array>
        <technique_common>
          <accessor source="#dump_body_rotation_euler_X-intangent-array" count="2" stride="2">
            <param name="X" type="float"/>
            <param name="Y" type="float"/>
          </accessor>
        </technique_common>
      </source>
      <source id="dump_body_rotation_euler_X-outtangent">
        <float_array id="dump_body_rotation_euler_X-outtangent-array" count="4">0.374795 0 1.334795 -1.96115e-6</float_array>
        <technique_common>
          <accessor source="#dump_body_rotation_euler_X-outtangent-array" count="2" stride="2">
            <param name="X" type="float"/>
            <param name="Y" type="float"/>
          </accessor>
        </technique_common>
      </source>
      <sampler id="dump_body_rotation_euler_X-sampler">
        <input semantic="INPUT" source="#dump_body_rotation_euler_X-input"/>
        <input semantic="OUTPUT" source="#dump_body_rotation_euler_X-output"/>
        <input semantic="INTERPOLATION" source="#dump_body_rotation_euler_X-interpolation"/>
        <input semantic="IN_TANGENT" source="#dump_body_rotation_euler_X-intangent"/>
        <input semantic="OUT_TANGENT" source="#dump_body_rotation_euler_X-outtangent"/>
      </sampler>
      <channel source="#dump_body_rotation_euler_X-sampler" target="dump_body/rotationX.ANGLE"/>
    </animation>
    <animation id="dump_body_rotation_euler_Y">
      <source id="dump_body_rotation_euler_Y-input">
        <float_array id="dump_body_rotation_euler_Y-input-array" count="2">0 0.96</float_array>
        <technique_common>
          <accessor source="#dump_body_rotation_euler_Y-input-array" count="2" stride="1">
            <param name="TIME" type="float"/>
          </accessor>
        </technique_common>
      </source>
      <source id="dump_body_rotation_euler_Y-output">
        <float_array id="dump_body_rotation_euler_Y-output-array" count="2">0 -60</float_array>
        <technique_common>
          <accessor source="#dump_body_rotation_euler_Y-output-array" count="2" stride="1">
            <param name="ANGLE" type="float"/>
          </accessor>
        </technique_common>
      </source>
      <source id="dump_body_rotation_euler_Y-interpolation">
        <Name_array id="dump_body_rotation_euler_Y-interpolation-array" count="2">BEZIER BEZIER</Name_array>
        <technique_common>
          <accessor source="#dump_body_rotation_euler_Y-interpolation-array" count="2" stride="1">
            <param name="INTERPOLATION" type="name"/>
          </accessor>
        </technique_common>
      </source>
      <source id="dump_body_rotation_euler_Y-intangent">
        <float_array id="dump_body_rotation_euler_Y-intangent-array" count="4">-0.3744388 0 0.5855612 -60</float_array>
        <technique_common>
          <accessor source="#dump_body_rotation_euler_Y-intangent-array" count="2" stride="2">
            <param name="X" type="float"/>
            <param name="Y" type="float"/>
          </accessor>
        </technique_common>
      </source>
      <source id="dump_body_rotation_euler_Y-outtangent">
        <float_array id="dump_body_rotation_euler_Y-outtangent-array" count="4">0.3744388 0 1.334439 -60</float_array>
        <technique_common>
          <accessor source="#dump_body_rotation_euler_Y-outtangent-array" count="2" stride="2">
            <param name="X" type="float"/>
            <param name="Y" type="float"/>
          </accessor>
        </technique_common>
      </source>
      <sampler id="dump_body_rotation_euler_Y-sampler">
        <input semantic="INPUT" source="#dump_body_rotation_euler_Y-input"/>
        <input semantic="OUTPUT" source="#dump_body_rotation_euler_Y-output"/>
        <input semantic="INTERPOLATION" source="#dump_body_rotation_euler_Y-interpolation"/>
        <input semantic="IN_TANGENT" source="#dump_body_rotation_euler_Y-intangent"/>
        <input semantic="OUT_TANGENT" source="#dump_body_rotation_euler_Y-outtangent"/>
      </sampler>
      <channel source="#dump_body_rotation_euler_Y-sampler" target="dump_body/rotationY.ANGLE"/>
    </animation>
    <animation id="dump_body_rotation_euler_Z">
      <source id="dump_body_rotation_euler_Z-input">
        <float_array id="dump_body_rotation_euler_Z-input-array" count="2">0 0.96</float_array>
        <technique_common>
          <accessor source="#dump_body_rotation_euler_Z-input-array" count="2" stride="1">
            <param name="TIME" type="float"/>
          </accessor>
        </technique_common>
      </source>
      <source id="dump_body_rotation_euler_Z-output">
        <float_array id="dump_body_rotation_euler_Z-output-array" count="2">0 3.39681e-6</float_array>
        <technique_common>
          <accessor source="#dump_body_rotation_euler_Z-output-array" count="2" stride="1">
            <param name="ANGLE" type="float"/>
          </accessor>
        </technique_common>
      </source>
      <source id="dump_body_rotation_euler_Z-interpolation">
        <Name_array id="dump_body_rotation_euler_Z-interpolation-array" count="2">BEZIER BEZIER</Name_array>
        <technique_common>
          <accessor source="#dump_body_rotation_euler_Z-interpolation-array" count="2" stride="1">
            <param name="INTERPOLATION" type="name"/>
          </accessor>
        </technique_common>
      </source>
      <source id="dump_body_rotation_euler_Z-intangent">
        <float_array id="dump_body_rotation_euler_Z-intangent-array" count="4">-0.374795 0 0.585205 3.39681e-6</float_array>
        <technique_common>
          <accessor source="#dump_body_rotation_euler_Z-intangent-array" count="2" stride="2">
            <param name="X" type="float"/>
            <param name="Y" type="float"/>
          </accessor>
        </technique_common>
      </source>
      <source id="dump_body_rotation_euler_Z-outtangent">
        <float_array id="dump_body_rotation_euler_Z-outtangent-array" count="4">0.374795 0 1.334795 3.39681e-6</float_array>
        <technique_common>
          <accessor source="#dump_body_rotation_euler_Z-outtangent-array" count="2" stride="2">
            <param name="X" type="float"/>
            <param name="Y" type="float"/>
          </accessor>
        </technique_common>
      </source>
      <sampler id="dump_body_rotation_euler_Z-sampler">
        <input semantic="INPUT" source="#dump_body_rotation_euler_Z-input"/>
        <input semantic="OUTPUT" source="#dump_body_rotation_euler_Z-output"/>
        <input semantic="INTERPOLATION" source="#dump_body_rotation_euler_Z-interpolation"/>
        <input semantic="IN_TANGENT" source="#dump_body_rotation_euler_Z-intangent"/>
        <input semantic="OUT_TANGENT" source="#dump_body_rotation_euler_Z-outtangent"/>
      </sampler>
      <channel source="#dump_body_rotation_euler_Z-sampler" target="dump_body/rotationZ.ANGLE"/>
    </animation>
  </library_animations>
  <library_visual_scenes>
    <visual_scene id="Scene" name="Scene">
      <node id="fwheel_r" name="fwheel_r" type="NODE">
        <translate sid="location">2 -1 0.5</translate>
        <rotate sid="rotationZ">0 0 1 0</rotate>
        <rotate sid="rotationY">0 1 0 0</rotate>
        <rotate sid="rotationX">1 0 0 0</rotate>
        <scale sid="scale">1 1 1</scale>
        <instance_geometry url="#fwheel-mesh">
          <bind_material>
            <technique_common>
              <instance_material symbol="wheels-material" target="#wheels-material"/>
            </technique_common>
          </bind_material>
        </instance_geometry>
      </node>
      <node id="fwheel_l" name="fwheel_l" type="NODE">
        <translate sid="location">2 1 0.5</translate>
        <rotate sid="rotationZ">0 0 1 0</rotate>
        <rotate sid="rotationY">0 1 0 0</rotate>
        <rotate sid="rotationX">1 0 0 0</rotate>
        <scale sid="scale">1 1 1</scale>
        <instance_geometry url="#fwheel-mesh">
          <bind_material>
            <technique_common>
              <instance_material symbol="wheels-material" target="#wheels-material"/>
            </technique_common>
          </bind_material>
        </instance_geometry>
      </node>
      <node id="rwheel1_r" name="rwheel1_r" type="NODE">
        <translate sid="location">-1.3 -0.85 0.5</translate>
        <rotate sid="rotationZ">0 0 1 0</rotate>
        <rotate sid="rotationY">0 1 0 0</rotate>
        <rotate sid="rotationX">1 0 0 0</rotate>
        <scale sid="scale">1 1 1</scale>
        <instance_geometry url="#rwheel-mesh">
          <bind_material>
            <technique_common>
              <instance_material symbol="wheels-material" target="#wheels-material"/>
            </technique_common>
          </bind_material>
        </instance_geometry>
      </node>
      <node id="rwheel2_r" name="rwheel2_r" type="NODE">
        <translate sid="location">-2.5 -0.85 0.5</translate>
        <rotate sid="rotationZ">0 0 1 0</rotate>
        <rotate sid="rotationY">0 1 0 0</rotate>
        <rotate sid="rotationX">1 0 0 0</rotate>
        <scale sid="scale">1 1 1</scale>
        <instance_geometry url="#rwheel-mesh">
          <bind_material>
            <technique_common>
              <instance_material symbol="wheels-material" target="#wheels-material"/>
            </technique_common>
          </bind_material>
        </instance_geometry>
      </node>
      <node id="rwheel2_l" name="rwheel2_l" type="NODE">
        <translate sid="location">-2.5 0.85 0.5</translate>
        <rotate sid="rotationZ">0 0 1 0</rotate>
        <rotate sid="rotationY">0 1 0 0</rotate>
        <rotate sid="rotationX">1 0 0 0</rotate>
        <scale sid="scale">1 1 1</scale>
        <instance_geometry url="#rwheel-mesh">
          <bind_material>
            <technique_common>
              <instance_material symbol="wheels-material" target="#wheels-material"/>
            </technique_common>
          </bind_material>
        </instance_geometry>
      </node>
      <node id="rwheel1_l" name="rwheel1_l" type="NODE">
        <translate sid="location">-1.3 0.85 0.5</translate>
        <rotate sid="rotationZ">0 0 1 0</rotate>
        <rotate sid="rotationY">0 1 0 0</rotate>
        <rotate sid="rotationX">1 0 0 0</rotate>
        <scale sid="scale">1 1 1</scale>
        <instance_geometry url="#rwheel-mesh">
          <bind_material>
            <technique_common>
              <instance_material symbol="wheels-material" target="#wheels-material"/>
            </technique_common>
          </bind_material>
        </instance_geometry>
      </node>
      <node id="body" name="body" type="NODE">
        <translate sid="location">2.399589 0 1.9</translate>
        <rotate sid="rotationZ">0 0 1 0</rotate>
        <rotate sid="rotationY">0 1 0 0</rotate>
        <rotate sid="rotationX">1 0 0 0</rotate>
        <scale sid="scale">1 1 1</scale>
        <instance_geometry url="#body-mesh">
          <bind_material>
            <technique_common>
              <instance_material symbol="cabin-material" target="#cabin-material"/>
              <instance_material symbol="bumper-material" target="#bumper-material"/>
              <instance_material symbol="frame-material" target="#frame-material"/>
            </technique_common>
          </bind_material>
        </instance_geometry>
      </node>
      <node id="dump_body" name="dump_body" type="NODE">
        <translate sid="location">-2.999999 0 1.103673</translate>
        <rotate sid="rotationZ">0 0 1 0</rotate>
        <rotate sid="rotationY">0 1 0 0</rotate>
        <rotate sid="rotationX">1 0 0 0</rotate>
        <scale sid="scale">1 1 1</scale>
        <instance_geometry url="#dump_body-mesh">
          <bind_material>
            <technique_common>
              <instance_material symbol="dump_body-material" target="#dump_body-material"/>
            </technique_common>
          </bind_material>
        </instance_geometry>
      </node>
    </visual_scene>
  </library_visual_scenes>
  <scene>
    <instance_visual_scene url="#Scene"/>
  </scene>
</COLLADA>